Sep 09, 2021 4:16:19 PM hudson.remoting.jnlp.Main createEngine
INFO: Setting up agent: jarvis
Sep 09, 2021 4:16:19 PM hudson.remoting.jnlp.Main$CuiListener <init>
INFO: Jenkins agent is running in headless mode.
Sep 09, 2021 4:16:19 PM hudson.remoting.Engine startEngine
INFO: Using Remoting version: 4.10
Sep 09, 2021 4:16:19 PM org.jenkinsci.remoting.engine.WorkDirManager initializeWorkDir
INFO: Using /home/ironman/workspace/gtproject/jenkins/remoting as a remoting work directory
Sep 09, 2021 4:16:19 PM hudson.remoting.jnlp.Main$CuiListener status
INFO: Locating server among [http://localhost/]
Sep 09, 2021 4:16:20 PM org.jenkinsci.remoting.engine.JnlpAgentEndpointResolver resolve
INFO: Remoting server accepts the following protocols: [JNLP4-connect, Ping]
Sep 09, 2021 4:16:20 PM org.jenkinsci.remoting.engine.JnlpAgentEndpointResolver isPortVisible
WARNING: Connection refused (Connection refused)
Sep 09, 2021 4:16:20 PM hudson.remoting.jnlp.Main$CuiListener error
SEVERE: http://localhost/ provided port:50000 is not reachable
java.io.IOException: http://localhost/ provided port:50000 is not reachable
	at org.jenkinsci.remoting.engine.JnlpAgentEndpointResolver.resolve(JnlpAgentEndpointResolver.java:311)
	at hudson.remoting.Engine.innerRun(Engine.java:724)
	at hudson.remoting.Engine.run(Engine.java:540)

